module gitlab.com/vitallium/puma-metrics-exporter

go 1.21

require (
	github.com/prometheus/client_golang v1.17.0
	github.com/stretchr/testify v1.8.4
	golang.org/x/sync v0.5.0
)

require (
	github.com/beorn7/perks v1.0.1 // indirect
	github.com/cespare/xxhash/v2 v2.2.0 // indirect
	github.com/davecgh/go-spew v1.1.1 // indirect
	github.com/golang/protobuf v1.5.3 // indirect
	github.com/matttproud/golang_protobuf_extensions v1.0.4 // indirect
	github.com/matttproud/golang_protobuf_extensions/v2 v2.0.0 // indirect
	github.com/pmezard/go-difflib v1.0.0 // indirect
	github.com/prometheus/client_model v0.5.0 // indirect
	github.com/prometheus/common v0.45.0 // indirect
	github.com/prometheus/procfs v0.12.0 // indirect
	golang.org/x/sys v0.14.0 // indirect
	google.golang.org/protobuf v1.31.0 // indirect
	gopkg.in/yaml.v2 v2.4.0 // indirect
	gopkg.in/yaml.v3 v3.0.1 // indirect
)
